(module Jumper_0402 (layer F.Cu) (tedit 5C2DA88B)
  (descr "Capacitor SMD 0402, reflow soldering, AVX (see smccp.pdf)")
  (tags "capacitor 0402")
  (attr smd)
  (fp_text reference JP1 (at 1.4 -0.2 -90) (layer F.SilkS)
    (effects (font (size 0.6 0.6) (thickness 0.06)))
  )
  (fp_text value Jumper_NC_Small (at 0 1.27) (layer F.Fab)
    (effects (font (size 1 1) (thickness 0.15)))
  )
  (fp_text user %R (at 0 -1.27) (layer F.Fab)
    (effects (font (size 1 1) (thickness 0.15)))
  )
  (fp_line (start -0.5 0.25) (end -0.5 -0.25) (layer F.Fab) (width 0.1))
  (fp_line (start 0.5 0.25) (end -0.5 0.25) (layer F.Fab) (width 0.1))
  (fp_line (start 0.5 -0.25) (end 0.5 0.25) (layer F.Fab) (width 0.1))
  (fp_line (start -0.5 -0.25) (end 0.5 -0.25) (layer F.Fab) (width 0.1))
  (fp_line (start 0.25 -0.47) (end -0.25 -0.47) (layer F.SilkS) (width 0.12))
  (fp_line (start -0.25 0.47) (end 0.25 0.47) (layer F.SilkS) (width 0.12))
  (fp_line (start -1 -0.4) (end 1 -0.4) (layer F.CrtYd) (width 0.05))
  (fp_line (start -1 -0.4) (end -1 0.4) (layer F.CrtYd) (width 0.05))
  (fp_line (start 1 0.4) (end 1 -0.4) (layer F.CrtYd) (width 0.05))
  (fp_line (start 1 0.4) (end -1 0.4) (layer F.CrtYd) (width 0.05))
  (pad 1 smd rect (at 0 0) (size 0.5 0.2) (layers F.Cu F.Paste F.Mask))
  (pad 1 smd rect (at -0.55 0) (size 0.6 0.5) (layers F.Cu F.Paste F.Mask))
  (pad 2 smd rect (at 0.55 0) (size 0.6 0.5) (layers F.Cu F.Paste F.Mask))
)
